verilog/cache/public_key_cache.vcd
$date
	Sun Apr 13 00:05:34 2025
$end
$version
	Icarus Verilog
$end
$timescale
	1ps
$end
$scope module tb_public_key_cache $end
$var wire 16 ! sum_out [15:0] $end
$var wire 64 " row_out [63:0] $end
$var wire 1 # cache_full $end
$var parameter 32 $ DATA_WIDTH $end
$var parameter 32 % NUM_COLS $end
$var parameter 32 & NUM_ROWS $end
$var reg 1 ' clk $end
$var reg 1 ( encryption_req $end
$var reg 3 ) kyber_k [2:0] $end
$var reg 2 * mode [1:0] $end
$var reg 64 + row_in [63:0] $end
$var reg 1 , rst $end
$var reg 16 - sum_in [15:0] $end
$scope module dut $end
$var wire 1 ' clk $end
$var wire 1 ( encryption_req $end
$var wire 3 . kyber_k [2:0] $end
$var wire 2 / mode [1:0] $end
$var wire 64 0 row_in [63:0] $end
$var wire 1 , rst $end
$var wire 16 1 sum_in [15:0] $end
$var wire 1 2 write_enable $end
$var wire 1 3 read_enable $end
$var parameter 32 4 DATA_WIDTH $end
$var parameter 32 5 NUM_COLS $end
$var parameter 32 6 NUM_ROWS $end
$var reg 1 # cache_full $end
$var reg 3 7 rd_ptr [2:0] $end
$var reg 64 8 row_out [63:0] $end
$var reg 16 9 sum_out [15:0] $end
$var reg 3 : wr_ptr [2:0] $end
$upscope $end
$scope begin $unm_blk_9 $end
$var integer 32 ; i [31:0] $end
$var integer 32 < j [31:0] $end
$upscope $end
$upscope $end
$enddefinitions $end
$comment Show the parameter values. $end
$dumpall
b1000 6
b100 5
b10000 4
b1000 &
b100 %
b10000 $
$end
#0
$dumpvars
bx <
bx ;
b0 :
bx 9
b0 8
b0 7
03
12
bx 1
b0 0
b0 /
b11 .
bx -
1,
b0 +
b0 *
b11 )
0(
0'
0#
b0 "
bx !
$end
#5000
1'
#10000
0'
#15000
1'
#20000
0'
b0 -
b0 1
b1111111111111111111011101110111000000011000000100000000100000000 +
b1111111111111111111011101110111000000011000000100000000100000000 0
b0 ;
0,
#25000
b1 :
b1 -
b1 1
b1111111111111111111011101110111000000100000000110000001000000001 +
b1111111111111111111011101110111000000100000000110000001000000001 0
b1 ;
1'
#30000
0'
#35000
b10 :
b10 -
b10 1
b1111111111111111111011101110111000000101000001000000001100000010 +
b1111111111111111111011101110111000000101000001000000001100000010 0
b10 ;
1'
#40000
0'
#45000
b11 :
b11 -
b11 1
b1111111111111111111011101110111000000110000001010000010000000011 +
b1111111111111111111011101110111000000110000001010000010000000011 0
b11 ;
1'
#50000
0'
#55000
b100 :
b100 -
b100 1
b1111111111111111111011101110111000000111000001100000010100000100 +
b1111111111111111111011101110111000000111000001100000010100000100 0
b100 ;
1'
#60000
0'
#65000
b101 :
b101 -
b101 1
b1111111111111111111011101110111000001000000001110000011000000101 +
b1111111111111111111011101110111000001000000001110000011000000101 0
b101 ;
1'
#70000
0'
#75000
b110 :
b110 -
b110 1
b1111111111111111111011101110111000001001000010000000011100000110 +
b1111111111111111111011101110111000001001000010000000011100000110 0
b110 ;
1'
#80000
0'
#85000
b111 :
b111 -
b111 1
b1111111111111111111011101110111000001010000010010000100000000111 +
b1111111111111111111011101110111000001010000010010000100000000111 0
b111 ;
1'
#90000
0'
#95000
1#
b0 :
b1000 ;
1'
#100000
0'
#105000
b1 7
b1 !
b1 9
b111011101110111000000100000000110000001000000001 "
b111011101110111000000100000000110000001000000001 8
0#
b1 :
02
b0 <
1(
13
b1 *
b1 /
1'
#110000
0'
#115000
b10 7
b10 !
b10 9
b111011101110111000000101000001000000001100000010 "
b111011101110111000000101000001000000001100000010 8
b1 <
1'
#120000
0'
#125000
b11 7
b11 !
b11 9
b111011101110111000000110000001010000010000000011 "
b111011101110111000000110000001010000010000000011 8
b10 <
1'
#130000
0'
#135000
b100 7
b100 !
b100 9
b111011101110111000000111000001100000010100000100 "
b111011101110111000000111000001100000010100000100 8
b11 <
1'
#140000
0'
#145000
b101 7
b101 !
b101 9
b111011101110111000001000000001110000011000000101 "
b111011101110111000001000000001110000011000000101 8
b100 <
1'
#150000
0'
#155000
b110 7
b110 !
b110 9
b111011101110111000001001000010000000011100000110 "
b111011101110111000001001000010000000011100000110 8
b101 <
1'
#160000
0'
#165000
b111 7
b111 !
b111 9
b111011101110111000001010000010010000100000000111 "
b111011101110111000001010000010010000100000000111 8
b110 <
1'
#170000
0'
#175000
b0 7
b111 <
1'
#180000
0'
#185000
b0 "
b0 8
b0 :
1,
b1000 <
1'
#190000
0'
#195000
12
b0 -
b0 1
b1111111111111111111011101110111000000011000000100000000100000000 +
b1111111111111111111011101110111000000011000000100000000100000000 0
b0 ;
03
b0 *
b0 /
0,
1'
#200000
0'
#205000
b1 :
b1 -
b1 1
b1111111111111111111011101110111000000100000000110000001000000001 +
b1111111111111111111011101110111000000100000000110000001000000001 0
b1 ;
1'
#210000
0'
#215000
b10 :
b10 -
b10 1
b1111111111111111111011101110111000000101000001000000001100000010 +
b1111111111111111111011101110111000000101000001000000001100000010 0
b10 ;
1'
#220000
0'
#225000
b11 :
b11 -
b11 1
b1111111111111111111011101110111000000110000001010000010000000011 +
b1111111111111111111011101110111000000110000001010000010000000011 0
b11 ;
1'
#230000
0'
#235000
b100 :
b100 -
b100 1
b1111111111111111111011101110111000000111000001100000010100000100 +
b1111111111111111111011101110111000000111000001100000010100000100 0
b100 ;
1'
#240000
0'
#245000
b101 :
b101 -
b101 1
b1111111111111111111011101110111000001000000001110000011000000101 +
b1111111111111111111011101110111000001000000001110000011000000101 0
b101 ;
1'
#250000
0'
#255000
b110 :
b110 -
b110 1
b1111111111111111111011101110111000001001000010000000011100000110 +
b1111111111111111111011101110111000001001000010000000011100000110 0
b110 ;
1'
#260000
0'
#265000
b111 :
b111 -
b111 1
b1111111111111111111011101110111000001010000010010000100000000111 +
b1111111111111111111011101110111000001010000010010000100000000111 0
b111 ;
1'
#270000
0'
#275000
1#
b0 :
b1000 ;
1'
#280000
0'
#285000
b1 7
b1 !
b1 9
b1111111111111111111011101110111000000100000000110000001000000001 "
b1111111111111111111011101110111000000100000000110000001000000001 8
0#
b1 :
02
b0 <
b100 )
b100 .
13
b1 *
b1 /
1'
#290000
0'
#295000
b10 7
b10 !
b10 9
b1111111111111111111011101110111000000101000001000000001100000010 "
b1111111111111111111011101110111000000101000001000000001100000010 8
b1 <
1'
#300000
0'
#305000
b11 7
b11 !
b11 9
b1111111111111111111011101110111000000110000001010000010000000011 "
b1111111111111111111011101110111000000110000001010000010000000011 8
b10 <
1'
#310000
0'
#315000
b100 7
b100 !
b100 9
b1111111111111111111011101110111000000111000001100000010100000100 "
b1111111111111111111011101110111000000111000001100000010100000100 8
b11 <
1'
#320000
0'
#325000
b101 7
b101 !
b101 9
b1111111111111111111011101110111000001000000001110000011000000101 "
b1111111111111111111011101110111000001000000001110000011000000101 8
b100 <
1'
#330000
0'
#335000
b110 7
b110 !
b110 9
b1111111111111111111011101110111000001001000010000000011100000110 "
b1111111111111111111011101110111000001001000010000000011100000110 8
b101 <
1'
#340000
0'
#345000
b111 7
b111 !
b111 9
b1111111111111111111011101110111000001010000010010000100000000111 "
b1111111111111111111011101110111000001010000010010000100000000111 8
b110 <
1'
#350000
0'
#355000
b0 7
b111 <
1'
#360000
0'
#365000
b1 7
b1000 <
1'
