verilog/modulus/tb_novel_mod_operator.vcd
$date
	Sat Apr 12 21:01:30 2025
$end
$version
	Icarus Verilog
$end
$timescale
	1ps
$end
$scope module tb_novel_mod_operator $end
$var wire 32 ! result [31:0] $end
$var wire 1 " done $end
$var parameter 32 # N $end
$var reg 32 $ A [31:0] $end
$var reg 32 % B [31:0] $end
$var reg 1 & clk $end
$var reg 1 ' rst $end
$var reg 1 ( start $end
$scope module uut $end
$var wire 32 ) A [31:0] $end
$var wire 32 * B [31:0] $end
$var wire 1 & clk $end
$var wire 1 ' rst $end
$var wire 1 ( start $end
$var parameter 32 + N $end
$var reg 32 , dividend [31:0] $end
$var reg 32 - divisor [31:0] $end
$var reg 1 " done $end
$var reg 32 . next_dividend [31:0] $end
$var reg 32 / next_divisor [31:0] $end
$var reg 6 0 next_shift [5:0] $end
$var reg 2 1 next_state [1:0] $end
$var reg 32 2 result [31:0] $end
$var reg 6 3 shift [5:0] $end
$var reg 2 4 state [1:0] $end
$scope begin SUBTRACT_BLOCK $end
$scope begin $unm_blk_13 $end
$var reg 32 5 new_dividend [31:0] $end
$var reg 32 6 new_divisor [31:0] $end
$var reg 6 7 new_shift [5:0] $end
$upscope $end
$upscope $end
$upscope $end
$upscope $end
$enddefinitions $end
$comment Show the parameter values. $end
$dumpall
b100000 +
b100000 #
$end
#0
$dumpvars
bx 7
bx 6
bx 5
b0 4
b0 3
b0 2
b0 1
b0 0
b0 /
b0 .
b0 -
b0 ,
b0 *
b0 )
0(
1'
0&
b0 %
b0 $
0"
b0 !
$end
#5000
1&
#10000
b1 1
b11 /
b1100100 .
0&
1(
b11 %
b11 *
b1100100 $
b1100100 )
0'
#15000
b1 0
b110 /
b11 -
b1100100 ,
b1 4
1&
#20000
b1 0
b110 /
0&
0(
#25000
b10 0
b1100 /
b1 3
b110 -
1&
#30000
0&
#35000
b11 0
b11000 /
b10 3
b1100 -
1&
#40000
0&
#45000
b100 0
b110000 /
b11 3
b11000 -
1&
#50000
0&
#55000
b101 0
b1100000 /
b100 3
b110000 -
1&
#60000
0&
#65000
b10 1
b101 3
b1100000 -
1&
#70000
0&
#75000
b100 0
b110000 /
b100 .
b100 7
b110000 6
b100 5
b10 4
1&
#80000
0&
#85000
b11 0
b11000 /
b11 7
b11000 6
b100 3
b110000 -
b100 ,
1&
#90000
0&
#95000
b10 0
b1100 /
b10 7
b1100 6
b11 3
b11000 -
1&
#100000
0&
#105000
b1 0
b110 /
b1 7
b110 6
b10 3
b1100 -
1&
#110000
0&
#115000
b0 0
b11 /
b0 7
b11 6
b1 3
b110 -
1&
#120000
0&
#125000
b11 1
b1 .
b0 3
b11 -
1&
#130000
0&
#135000
b0 1
b1 ,
b11 4
1&
#140000
0&
#145000
1"
b1 !
b1 2
b0 4
1&
#150000
0&
#155000
0"
1&
#160000
0&
#165000
b1 0
b10000 -
b100000000 ,
b1 4
b1 1
b100000 /
b100000000 .
1&
1(
b10000 %
b10000 *
b100000000 $
b100000000 )
#170000
0&
#175000
b1 3
b100000 -
b10 0
b1000000 /
1&
0(
#180000
0&
#185000
b11 0
b10000000 /
b10 3
b1000000 -
1&
#190000
0&
#195000
b100 0
b100000000 /
b11 3
b10000000 -
1&
#200000
0&
#205000
b10 1
b100 3
b100000000 -
1&
#210000
0&
#215000
b11 0
b10000000 /
b0 .
b11 7
b10000000 6
b0 5
b10 4
1&
#220000
0&
#225000
b10 0
b1000000 /
b10 7
b1000000 6
b11 3
b10000000 -
b0 ,
1&
#230000
0&
#235000
b1 0
b100000 /
b1 7
b100000 6
b10 3
b1000000 -
1&
#240000
0&
#245000
b0 0
b10000 /
b0 7
b10000 6
b1 3
b100000 -
1&
#250000
0&
#255000
b11 1
b0 3
b10000 -
1&
#260000
0&
#265000
b0 1
b11 4
1&
#270000
0&
#275000
1"
b0 !
b0 2
b0 4
1&
#280000
0&
#285000
0"
1&
#290000
0&
#295000
b1 0
b1100010101 -
b11110001001000000 ,
b1 4
b1 1
b11000101010 /
b11110001001000000 .
1&
1(
b1100010101 %
b1100010101 *
b11110001001000000 $
b11110001001000000 )
#300000
0&
#305000
b1 3
b11000101010 -
b10 0
b110001010100 /
1&
0(
#310000
0&
#315000
b11 0
b1100010101000 /
b10 3
b110001010100 -
1&
#320000
0&
#325000
b100 0
b11000101010000 /
b11 3
b1100010101000 -
1&
#330000
0&
#335000
b101 0
b110001010100000 /
b100 3
b11000101010000 -
1&
#340000
0&
#345000
b110 0
b1100010101000000 /
b101 3
b110001010100000 -
1&
#350000
0&
#355000
b111 0
b11000101010000000 /
b110 3
b1100010101000000 -
1&
#360000
0&
#365000
b10 1
b111 3
b11000101010000000 -
1&
#370000
0&
#375000
b110 0
b1100010101000000 /
b101011111000000 .
b110 7
b1100010101000000 6
b101011111000000 5
b10 4
1&
#380000
0&
#385000
b101 0
b110001010100000 /
b101 7
b110001010100000 6
b110 3
b1100010101000000 -
b101011111000000 ,
1&
#390000
0&
#395000
b100 0
b11000101010000 /
b100 7
b11000101010000 6
b101 3
b110001010100000 -
1&
#400000
0&
#405000
b11 0
b1100010101000 /
b10011001110000 .
b11 7
b1100010101000 6
b10011001110000 5
b100 3
b11000101010000 -
1&
#410000
0&
#415000
b10 0
b110001010100 /
b110111001000 .
b10 7
b110001010100 6
b110111001000 5
b11 3
b1100010101000 -
b10011001110000 ,
1&
#420000
0&
#425000
b1 0
b11000101010 /
b101110100 .
b1 7
b11000101010 6
b101110100 5
b10 3
b110001010100 -
b110111001000 ,
1&
#430000
0&
#435000
b0 0
b1100010101 /
b0 7
b1100010101 6
b1 3
b11000101010 -
b101110100 ,
1&
#440000
0&
#445000
b11 1
b0 3
b1100010101 -
1&
#450000
0&
#455000
b0 1
b11 4
1&
#460000
0&
#465000
1"
b101110100 !
b101110100 2
b0 4
1&
#470000
0&
#475000
0"
1&
#480000
0&
#485000
b1111 -
b0 ,
b1 4
b10 1
b1111 /
b0 .
1&
1(
b1111 %
b1111 *
b0 $
b0 )
#490000
0&
#495000
b10 4
b11 1
1&
0(
#500000
0&
#505000
b0 1
b11 4
1&
#510000
0&
#515000
1"
b0 !
b0 2
b0 4
1&
#520000
0&
#525000
0"
1&
#530000
0&
#535000
b1 0
b0 -
b1111 ,
b1 4
b1 1
b0 /
b1111 .
1&
1(
b0 %
b0 *
b1111 $
b1111 )
#540000
0&
#545000
b1 3
b10 0
1&
0(
#550000
0&
#555000
b11 0
b10 3
1&
#560000
0&
#565000
b100 0
b11 3
1&
#570000
0&
#575000
b101 0
b100 3
1&
#580000
0&
#585000
b110 0
b101 3
1&
#590000
0&
#595000
b111 0
b110 3
1&
#600000
0&
#605000
b1000 0
b111 3
1&
#610000
0&
#615000
b1001 0
b1000 3
1&
#620000
0&
#625000
b1010 0
b1001 3
1&
#630000
0&
#635000
b1011 0
b1010 3
1&
#640000
0&
#645000
b1100 0
b1011 3
1&
#650000
0&
#655000
b1101 0
b1100 3
1&
#660000
0&
#665000
b1110 0
b1101 3
1&
#670000
0&
#675000
b1111 0
b1110 3
1&
#680000
0&
#685000
b10000 0
b1111 3
1&
#690000
0&
#695000
b10001 0
b10000 3
1&
#700000
0&
#705000
b10010 0
b10001 3
1&
#710000
0&
#715000
b10011 0
b10010 3
1&
#720000
0&
#725000
b10100 0
b10011 3
1&
#730000
0&
#735000
b10101 0
b10100 3
1&
#740000
0&
#745000
b10110 0
b10101 3
1&
#750000
0&
#755000
b10111 0
b10110 3
1&
#760000
0&
#765000
b11000 0
b10111 3
1&
#770000
0&
#775000
b11001 0
b11000 3
1&
#780000
0&
#785000
b11010 0
b11001 3
1&
#790000
0&
#795000
b11011 0
b11010 3
1&
#800000
0&
#805000
b11100 0
b11011 3
1&
#810000
0&
#815000
b11101 0
b11100 3
1&
#820000
0&
#825000
b11110 0
b11101 3
1&
#830000
0&
#835000
b11111 0
b11110 3
1&
#840000
0&
#845000
b100000 0
b11111 3
1&
#850000
0&
#855000
b10 1
b100000 3
1&
#860000
0&
#865000
b11111 0
b11111 7
b0 6
b1111 5
b10 4
1&
#870000
0&
#875000
b11110 0
b11110 7
b11111 3
1&
#880000
0&
#885000
b11101 0
b11101 7
b11110 3
1&
#890000
0&
#895000
b11100 0
b11100 7
b11101 3
1&
#900000
0&
#905000
b11011 0
b11011 7
b11100 3
1&
#910000
0&
#915000
b11010 0
b11010 7
b11011 3
1&
#920000
0&
#925000
b11001 0
b11001 7
b11010 3
1&
#930000
0&
#935000
b11000 0
b11000 7
b11001 3
1&
#940000
0&
#945000
b10111 0
b10111 7
b11000 3
1&
#950000
0&
#955000
b10110 0
b10110 7
b10111 3
1&
#960000
0&
#965000
b10101 0
b10101 7
b10110 3
1&
#970000
0&
#975000
b10100 0
b10100 7
b10101 3
1&
#980000
0&
#985000
b10011 0
b10011 7
b10100 3
1&
#990000
0&
#995000
b10010 0
b10010 7
b10011 3
1&
#1000000
0&
#1005000
b10001 0
b10001 7
b10010 3
1&
#1010000
0&
#1015000
b10000 0
b10000 7
b10001 3
1&
#1020000
0&
#1025000
b1111 0
b1111 7
b10000 3
1&
#1030000
0&
#1035000
b1110 0
b1110 7
b1111 3
1&
#1040000
0&
#1045000
b1101 0
b1101 7
b1110 3
1&
#1050000
0&
#1055000
b1100 0
b1100 7
b1101 3
1&
#1060000
0&
#1065000
b1011 0
b1011 7
b1100 3
1&
#1070000
0&
#1075000
b1010 0
b1010 7
b1011 3
1&
#1080000
0&
#1085000
b1001 0
b1001 7
b1010 3
1&
#1090000
0&
#1095000
b1000 0
b1000 7
b1001 3
1&
#1100000
0&
#1105000
b111 0
b111 7
b1000 3
1&
#1110000
0&
#1115000
b110 0
b110 7
b111 3
1&
#1120000
0&
#1125000
b101 0
b101 7
b110 3
1&
#1130000
0&
#1135000
b100 0
b100 7
b101 3
1&
#1140000
0&
#1145000
b11 0
b11 7
b100 3
1&
#1150000
0&
#1155000
b10 0
b10 7
b11 3
1&
#1160000
0&
#1165000
b1 0
b1 7
b10 3
1&
#1170000
0&
#1175000
b0 0
b0 7
b1 3
1&
#1180000
0&
#1185000
b11 1
b0 3
1&
#1190000
0&
#1195000
b0 1
b11 4
1&
#1200000
0&
#1205000
1"
b1111 !
b1111 2
b0 4
1&
#1210000
0&
#1215000
0"
1&
#1220000
0&
#1225000
b1 0
b111 -
b1010011100 ,
b1 4
b1 1
b1110 /
b1010011100 .
1&
1(
b111 %
b111 *
b1010011100 $
b1010011100 )
#1230000
0&
#1235000
b1 3
b1110 -
b10 0
b11100 /
1&
0(
#1240000
0&
#1245000
b11 0
b111000 /
b10 3
b11100 -
1&
#1250000
0&
#1255000
b100 0
b1110000 /
b11 3
b111000 -
1&
#1260000
0&
#1265000
b101 0
b11100000 /
b100 3
b1110000 -
1&
#1270000
0&
#1275000
b110 0
b111000000 /
b101 3
b11100000 -
1&
#1280000
0&
#1285000
b10 1
b110 3
b111000000 -
1&
#1290000
0&
#1295000
b101 0
b11100000 /
b11011100 .
b101 7
b11100000 6
b11011100 5
b10 4
1&
#1300000
0&
#1305000
b100 0
b1110000 /
b100 7
b1110000 6
b101 3
b11100000 -
b11011100 ,
1&
#1310000
0&
#1315000
b11 0
b111000 /
b1101100 .
b11 7
b111000 6
b1101100 5
b100 3
b1110000 -
1&
#1320000
0&
#1325000
b10 0
b11100 /
b110100 .
b10 7
b11100 6
b110100 5
b11 3
b111000 -
b1101100 ,
1&
#1330000
0&
#1335000
b1 0
b1110 /
b11000 .
b1 7
b1110 6
b11000 5
b10 3
b11100 -
b110100 ,
1&
#1340000
0&
#1345000
b0 0
b111 /
b1010 .
b0 7
b111 6
b1010 5
b1 3
b1110 -
b11000 ,
1&
#1350000
0&
#1355000
b11 1
b11 .
b0 3
b111 -
b1010 ,
1&
#1360000
0&
#1365000
b0 1
b11 ,
b11 4
1&
#1370000
0&
#1375000
1"
b11 !
b11 2
b0 4
1&
#1380000
0&
#1385000
0"
1&
